%YAML 1.1
%TAG !u! tag:unity3d.com,2011:
--- !u!114 &11400000
MonoBehaviour:
  m_ObjectHideFlags: 0
  m_PrefabParentObject: {fileID: 0}
  m_PrefabInternal: {fileID: 0}
  m_GameObject: {fileID: 0}
  m_Enabled: 1
  m_EditorHideFlags: 0
  m_Script: {fileID: 11500000, guid: 28ba1be343f3bf340b30c10a6f67fccc, type: 3}
  m_Name: Box Girl
  m_EditorClassIdentifier: 
  quantity: 1
  objectToSpawn: 2
